(module WX-DC12003 (layer F.Cu) (tedit 5F8767D1)
  (fp_text reference REF** (at 0 -2.54) (layer F.SilkS)
    (effects (font (size 1 1) (thickness 0.15)))
  )
  (fp_text value WX-DC12003 (at 0 -5.08) (layer F.Fab)
    (effects (font (size 1 1) (thickness 0.15)))
  )
  (fp_line (start -12 0) (end 11.5 0) (layer F.SilkS) (width 0.12))
  (fp_line (start -12 0) (end -12 18.155) (layer F.SilkS) (width 0.12))
  (fp_line (start 11.5 0) (end 11.5 18.155) (layer F.SilkS) (width 0.12))
  (fp_line (start 11.5 18.155) (end 8.5 18.155) (layer F.SilkS) (width 0.12))
  (fp_line (start 8.5 18.155) (end 8.5 15.155) (layer F.SilkS) (width 0.12))
  (fp_line (start 8.5 15.155) (end 7 15.155) (layer F.SilkS) (width 0.12))
  (fp_line (start 7 15.155) (end 7 18.155) (layer F.SilkS) (width 0.12))
  (fp_line (start 7 18.155) (end 4 18.155) (layer F.SilkS) (width 0.12))
  (fp_line (start 4 18.155) (end 4 15.155) (layer F.SilkS) (width 0.12))
  (fp_line (start 4 15.155) (end -6.4 15.155) (layer F.SilkS) (width 0.12))
  (fp_line (start -6.4 15.155) (end -6.4 18.155) (layer F.SilkS) (width 0.12))
  (fp_line (start -6.4 18.155) (end -12 18.155) (layer F.SilkS) (width 0.12))
  (fp_text user - (at -10.16 14.986) (layer F.SilkS)
    (effects (font (size 1 1) (thickness 0.15)))
  )
  (fp_text user + (at -7.62 14.986) (layer F.SilkS)
    (effects (font (size 1 1) (thickness 0.15)))
  )
  (fp_text user N (at 5.334 14.986) (layer F.SilkS)
    (effects (font (size 1 1) (thickness 0.15)))
  )
  (fp_text user L (at 10.414 14.986) (layer F.SilkS)
    (effects (font (size 1 1) (thickness 0.15)))
  )
  (fp_line (start -6.35 14.732) (end 4.064 14.732) (layer F.SilkS) (width 0.12))
  (fp_line (start 4.064 14.732) (end 4.064 3.302) (layer F.SilkS) (width 0.12))
  (fp_line (start 4.064 3.302) (end -6.35 3.302) (layer F.SilkS) (width 0.12))
  (fp_line (start -6.35 14.732) (end -6.35 3.302) (layer F.SilkS) (width 0.12))
  (pad 1 thru_hole circle (at -10.16 16.764) (size 1.524 1.524) (drill 0.762) (layers *.Cu *.Mask))
  (pad 2 thru_hole circle (at -7.62 16.764) (size 1.524 1.524) (drill 0.762) (layers *.Cu *.Mask))
  (pad 3 thru_hole circle (at 5.334 16.764) (size 1.524 1.524) (drill 0.762) (layers *.Cu *.Mask))
  (pad 4 thru_hole circle (at 10.414 16.764) (size 1.524 1.524) (drill 0.762) (layers *.Cu *.Mask))
)
